<?xml version="1.0" encoding="utf-8"?>
<!-- Generator: Adobe Illustrator 23.0.1, SVG Export Plug-In . SVG Version: 6.00 Build 0)  -->
<svg version="1.1" id="Capa_1" xmlns="http://www.w3.org/2000/svg" xmlns:xlink="http://www.w3.org/1999/xlink" x="0px" y="0px"
	 viewBox="0 0 541 352" style="enable-background:new 0 0 541 352;" xml:space="preserve">
<style type="text/css">
	.st0{fill:#261D6D;stroke:#000000;stroke-miterlimit:10;}
	.st1{fill:#FFB600;}
	.st2{fill:#F7981D;}
	.st3{fill:#FF8500;}
	.st4{fill:#FF5050;}
	.st5{fill:#E52836;}
	.st6{fill:#CB2026;}
	.st7{fill:#FFFFFF;}
	.st8{fill:#DCE5E5;}
</style>
<rect x="-5" class="st0" width="546" height="352"/>
<path class="st1" d="M521,178c0,83.2-67.2,151.2-151.2,151.2c-83.2,0-151.2-68-151.2-151.2l0,0c0-83.2,67.2-151.2,150.4-151.2
	C453.8,26.8,521,94.8,521,178L521,178z"/>
<path class="st2" d="M369.8,26.8C453,26.8,521,94.8,521,178l0,0c0,83.2-67.2,151.2-151.2,151.2c-83.2,0-151.2-68-151.2-151.2"/>
<path class="st3" d="M369.8,26.8C453,26.8,521,94.8,521,178l0,0c0,83.2-67.2,151.2-151.2,151.2"/>
<path class="st4" d="M166.6,26.8C84.2,27.6,17,94.8,17,178s67.2,151.2,151.2,151.2c39.2,0,74.4-15.2,101.6-39.2l0,0l0,0
	c5.6-4.8,10.4-10.4,15.2-16h-31.2c-4-4.8-8-10.4-11.2-15.2h53.6c3.2-4.8,6.4-10.4,8.8-16h-71.2c-2.4-4.8-4.8-10.4-6.4-16h83.2
	c4.8-15.2,8-31.2,8-48c0-11.2-1.6-21.6-3.2-32h-92.8c0.8-5.6,2.4-10.4,4-16h83.2c-1.6-5.6-4-11.2-6.4-16H233
	c2.4-5.6,5.6-10.4,8.8-16h53.6c-3.2-5.6-7.2-11.2-12-16h-29.6c4.8-5.6,9.6-10.4,15.2-15.2c-26.4-24.8-62.4-39.2-101.6-39.2
	C167.4,26.8,167.4,26.8,166.6,26.8z"/>
<path class="st5" d="M17,178c0,83.2,67.2,151.2,151.2,151.2c39.2,0,74.4-15.2,101.6-39.2l0,0l0,0c5.6-4.8,10.4-10.4,15.2-16h-31.2
	c-4-4.8-8-10.4-11.2-15.2h53.6c3.2-4.8,6.4-10.4,8.8-16h-71.2c-2.4-4.8-4.8-10.4-6.4-16h83.2c4.8-15.2,8-31.2,8-48
	c0-11.2-1.6-21.6-3.2-32h-92.8c0.8-5.6,2.4-10.4,4-16h83.2c-1.6-5.6-4-11.2-6.4-16H233c2.4-5.6,5.6-10.4,8.8-16h53.6
	c-3.2-5.6-7.2-11.2-12-16h-29.6c4.8-5.6,9.6-10.4,15.2-15.2c-26.4-24.8-62.4-39.2-101.6-39.2h-0.8"/>
<path class="st6" d="M168.2,329.2c39.2,0,74.4-15.3,101.6-39.5l0,0l0,0c5.6-4.8,10.4-10.5,15.2-16.1h-31.2c-4-4.8-8-10.5-11.2-15.3
	h53.6c3.2-4.8,6.4-10.5,8.8-16.1h-71.2c-2.4-4.8-4.8-10.5-6.4-16.1h83.2c4.8-15.3,8-31.4,8-48.3c0-11.3-1.6-21.7-3.2-32.2h-92.8
	c0.8-5.6,2.4-10.5,4-16.1h83.2c-1.6-5.6-4-11.3-6.4-16.1H233c2.4-5.6,5.6-10.5,8.8-16.1h53.6c-3.2-5.6-7.2-11.3-12-16.1h-29.6
	c4.8-5.6,9.6-10.5,15.2-15.3c-26.4-25-62.4-39.5-101.6-39.5h-0.8"/>
<g>
	<path class="st7" d="M221.8,216.4l2.4-13.6c-0.8,0-2.4,0.8-4,0.8c-5.6,0-6.4-3.2-5.6-4.8l4.8-28h8.8l2.4-15.2h-8l1.6-9.6h-16
		c0,0-9.6,52.8-9.6,59.2c0,9.6,5.6,13.6,12.8,13.6C216.2,218.8,220.2,217.2,221.8,216.4z"/>
	<path class="st7" d="M227.4,190.8c0,22.4,15.2,28,28,28c12,0,16.8-2.4,16.8-2.4l3.2-15.2c0,0-8.8,4-16.8,4
		c-17.6,0-14.4-12.8-14.4-12.8H277c0,0,2.4-10.4,2.4-14.4c0-10.4-5.6-23.2-23.2-23.2C239.4,153.2,227.4,170.8,227.4,190.8z
		 M255.4,167.6c8.8,0,7.2,10.4,7.2,11.2H245C245,178,246.6,167.6,255.4,167.6z"/>
	<path class="st7" d="M357,216.4l3.2-17.6c0,0-8,4-13.6,4c-11.2,0-16-8.8-16-18.4c0-19.2,9.6-29.6,20.8-29.6c8,0,14.4,4.8,14.4,4.8
		l2.4-16.8c0,0-9.6-4-18.4-4c-18.4,0-36.8,16-36.8,46.4c0,20,9.6,33.6,28.8,33.6C348.2,218.8,357,216.4,357,216.4z"/>
	<path class="st7" d="M133.8,153.2c-11.2,0-19.2,3.2-19.2,3.2l-2.4,13.6c0,0,7.2-3.2,17.6-3.2c5.6,0,10.4,0.8,10.4,5.6
		c0,3.2-0.8,4-0.8,4s-4.8,0-7.2,0c-13.6,0-28.8,5.6-28.8,24c0,14.4,9.6,17.6,15.2,17.6c11.2,0,16-7.2,16.8-7.2l-0.8,6.4H149l6.4-44
		C155.4,154,139.4,153.2,133.8,153.2z M137,189.2c0,2.4-1.6,15.2-11.2,15.2c-4.8,0-6.4-4-6.4-6.4c0-4,2.4-9.6,14.4-9.6
		C136.2,189.2,137,189.2,137,189.2z"/>
	<path class="st7" d="M170.6,218c4,0,24,0.8,24-20.8c0-20-19.2-16-19.2-24c0-4,3.2-5.6,8.8-5.6c2.4,0,11.2,0.8,11.2,0.8l2.4-14.4
		c0,0-5.6-1.6-15.2-1.6c-12,0-24,4.8-24,20.8c0,18.4,20,16.8,20,24c0,4.8-5.6,5.6-9.6,5.6c-7.2,0-14.4-2.4-14.4-2.4l-2.4,14.4
		C153,216.4,157,218,170.6,218z"/>
	<path class="st7" d="M489.8,140.4l-3.2,21.6c0,0-6.4-8-15.2-8c-14.4,0-27.2,17.6-27.2,38.4c0,12.8,6.4,26.4,20,26.4
		c9.6,0,15.2-6.4,15.2-6.4l-0.8,5.6h16l12-76.8L489.8,140.4z M482.6,182.8c0,8.8-4,20-12.8,20c-5.6,0-8.8-4.8-8.8-12.8
		c0-12.8,5.6-20.8,12.8-20.8C479.4,169.2,482.6,173.2,482.6,182.8z"/>
	<path class="st7" d="M46.6,217.2l9.6-57.6l1.6,57.6H69l20.8-57.6L81,217.2h16.8l12.8-76.8H84.2l-16,47.2l-0.8-47.2H44.2l-12.8,76.8
		H46.6z"/>
	<path class="st7" d="M294.6,217.2c4.8-26.4,5.6-48,16.8-44c1.6-10.4,4-14.4,5.6-18.4c0,0-0.8,0-3.2,0c-7.2,0-12.8,9.6-12.8,9.6
		l1.6-8.8h-15.2L277,218h17.6V217.2z"/>
	<path class="st7" d="M393.8,153.2c-11.2,0-19.2,3.2-19.2,3.2l-2.4,13.6c0,0,7.2-3.2,17.6-3.2c5.6,0,10.4,0.8,10.4,5.6
		c0,3.2-0.8,4-0.8,4s-4.8,0-7.2,0c-13.6,0-28.8,5.6-28.8,24c0,14.4,9.6,17.6,15.2,17.6c11.2,0,16-7.2,16.8-7.2l-0.8,6.4H409l6.4-44
		C416.2,154,399.4,153.2,393.8,153.2z M397.8,189.2c0,2.4-1.6,15.2-11.2,15.2c-4.8,0-6.4-4-6.4-6.4c0-4,2.4-9.6,14.4-9.6
		C397,189.2,397,189.2,397.8,189.2z"/>
	<path class="st7" d="M429,217.2c4.8-26.4,5.6-48,16.8-44c1.6-10.4,4-14.4,5.6-18.4c0,0-0.8,0-3.2,0c-7.2,0-12.8,9.6-12.8,9.6
		l1.6-8.8h-15.2L411.4,218H429V217.2z"/>
</g>
<g>
	<path class="st8" d="M197,205.2c0,9.6,5.6,13.6,12.8,13.6c5.6,0,10.4-1.6,12-2.4l2.4-13.6c-0.8,0-2.4,0.8-4,0.8
		c-5.6,0-6.4-3.2-5.6-4.8l4.8-28h8.8l2.4-15.2h-8l1.6-9.6"/>
	<path class="st8" d="M235.4,190.8c0,22.4,7.2,28,20,28c12,0,16.8-2.4,16.8-2.4l3.2-15.2c0,0-8.8,4-16.8,4
		c-17.6,0-14.4-12.8-14.4-12.8H277c0,0,2.4-10.4,2.4-14.4c0-10.4-5.6-23.2-23.2-23.2C239.4,153.2,235.4,170.8,235.4,190.8z
		 M255.4,167.6c8.8,0,10.4,10.4,10.4,11.2H245C245,178,246.6,167.6,255.4,167.6z"/>
	<path class="st8" d="M357,216.4l3.2-17.6c0,0-8,4-13.6,4c-11.2,0-16-8.8-16-18.4c0-19.2,9.6-29.6,20.8-29.6c8,0,14.4,4.8,14.4,4.8
		l2.4-16.8c0,0-9.6-4-18.4-4c-18.4,0-28.8,16-28.8,46.4c0,20,1.6,33.6,20.8,33.6C348.2,218.8,357,216.4,357,216.4z"/>
	<path class="st8" d="M112.2,170.8c0,0,7.2-3.2,17.6-3.2c5.6,0,10.4,0.8,10.4,5.6c0,3.2-0.8,4-0.8,4s-4.8,0-7.2,0
		c-13.6,0-28.8,5.6-28.8,24c0,14.4,9.6,17.6,15.2,17.6c11.2,0,16-7.2,16.8-7.2l-0.8,6.4H149l6.4-44c0-18.4-16-19.2-22.4-19.2
		 M145,189.2c0,2.4-9.6,15.2-19.2,15.2c-4.8,0-6.4-4-6.4-6.4c0-4,2.4-9.6,14.4-9.6C136.2,189.2,145,189.2,145,189.2z"/>
	<path class="st8" d="M153,216.4c0,0,4.8,1.6,18.4,1.6c4,0,24,0.8,24-20.8c0-20-19.2-16-19.2-24c0-4,3.2-5.6,8.8-5.6
		c2.4,0,11.2,0.8,11.2,0.8l2.4-14.4c0,0-5.6-1.6-15.2-1.6c-12,0-16,4.8-16,20.8c0,18.4,12,16.8,12,24c0,4.8-5.6,5.6-9.6,5.6"/>
	<path class="st8" d="M486.6,162c0,0-6.4-8-15.2-8c-14.4,0-19.2,17.6-19.2,38.4c0,12.8-1.6,26.4,12,26.4c9.6,0,15.2-6.4,15.2-6.4
		l-0.8,5.6h16l12-76.8 M485.8,182.8c0,8.8-7.2,20-16,20c-5.6,0-8.8-4.8-8.8-12.8c0-12.8,5.6-20.8,12.8-20.8
		C479.4,169.2,485.8,173.2,485.8,182.8z"/>
	<path class="st8" d="M46.6,217.2l9.6-57.6l1.6,57.6H69l20.8-57.6L81,217.2h16.8l12.8-76.8h-20l-22.4,47.2l-0.8-47.2h-8.8
		l-27.2,76.8H46.6z"/>
	<path class="st8" d="M277.8,217.2h16.8c4.8-26.4,5.6-48,16.8-44c1.6-10.4,4-14.4,5.6-18.4c0,0-0.8,0-3.2,0
		c-7.2,0-12.8,9.6-12.8,9.6l1.6-8.8"/>
	<path class="st8" d="M372.2,170.8c0,0,7.2-3.2,17.6-3.2c5.6,0,10.4,0.8,10.4,5.6c0,3.2-0.8,4-0.8,4s-4.8,0-7.2,0
		c-13.6,0-28.8,5.6-28.8,24c0,14.4,9.6,17.6,15.2,17.6c11.2,0,16-7.2,16.8-7.2l-0.8,6.4H409l6.4-44c0-18.4-16-19.2-22.4-19.2
		 M405,189.2c0,2.4-9.6,15.2-19.2,15.2c-4.8,0-6.4-4-6.4-6.4c0-4,2.4-9.6,14.4-9.6C397,189.2,405,189.2,405,189.2z"/>
	<path class="st8" d="M412.2,217.2H429c4.8-26.4,5.6-48,16.8-44c1.6-10.4,4-14.4,5.6-18.4c0,0-0.8,0-3.2,0c-7.2,0-12.8,9.6-12.8,9.6
		l1.6-8.8"/>
</g>
</svg>
