<?xml version="1.0" encoding="utf-8"?>
<!-- Generator: Adobe Illustrator 23.0.1, SVG Export Plug-In . SVG Version: 6.00 Build 0)  -->
<svg version="1.1" id="Capa_1" xmlns="http://www.w3.org/2000/svg" xmlns:xlink="http://www.w3.org/1999/xlink" x="0px" y="0px"
	 viewBox="0 0 533.6 192" style="enable-background:new 0 0 533.6 192;" xml:space="preserve">
<style type="text/css">
	.st0{fill:#FFFFFF;stroke:#000000;stroke-miterlimit:10;}
	.st1{fill:#3C58BF;}
	.st2{fill:#293688;}
	.st3{fill:#FFBC00;}
	.st4{fill:#F7981D;}
	.st5{fill:#ED7C00;}
	.st6{fill:#051244;}
</style>
<rect class="st0" width="533.6" height="192"/>
<polygon class="st1" points="197.5,167.4 223.1,23.4 263.1,23.4 238.3,167.4 "/>
<polygon class="st2" points="197.5,167.4 230.3,23.4 263.1,23.4 238.3,167.4 "/>
<path class="st1" d="M383.1,25c-8-3.2-20.8-6.4-36.8-6.4c-40,0-68.8,20-68.8,48.8c0,21.6,20,32.8,36,40s20.8,12,20.8,18.4
	c0,9.6-12.8,14.4-24,14.4c-16,0-24.8-2.4-38.4-8l-5.6-2.4l-5.6,32.8c9.6,4,27.2,8,45.6,8c42.4,0,70.4-20,70.4-50.4
	c0-16.8-10.4-29.6-34.4-40C327.9,73,319.1,69,319.1,61.8c0-6.4,7.2-12.8,23.2-12.8c13.6,0,23.2,2.4,30.4,5.6l4,1.6L383.1,25
	L383.1,25z"/>
<path class="st2" d="M383.1,25c-8-3.2-20.8-6.4-36.8-6.4c-40,0-61.6,20-61.6,48.8c0,21.6,12.8,32.8,28.8,40s20.8,12,20.8,18.4
	c0,9.6-12.8,14.4-24,14.4c-16,0-24.8-2.4-38.4-8l-5.6-2.4l-5.6,32.8c9.6,4,27.2,8,45.6,8c42.4,0,70.4-20,70.4-50.4
	c0-16.8-10.4-29.6-34.4-40C327.9,73,319.1,69,319.1,61.8c0-6.4,7.2-12.8,23.2-12.8c13.6,0,23.2,2.4,30.4,5.6l4,1.6L383.1,25
	L383.1,25z"/>
<path class="st1" d="M451.9,23.4c-9.6,0-16.8,0.8-20.8,10.4l-60,133.6h43.2l8-24h51.2l4.8,24h38.4l-33.6-144H451.9z M433.5,119.4
	c2.4-7.2,16-42.4,16-42.4s3.2-8.8,5.6-14.4l2.4,13.6c0,0,8,36,9.6,44h-33.6V119.4z"/>
<path class="st2" d="M461.5,23.4c-9.6,0-16.8,0.8-20.8,10.4l-69.6,133.6h43.2l8-24h51.2l4.8,24h38.4l-33.6-144H461.5z M433.5,119.4
	c3.2-8,16-42.4,16-42.4s3.2-8.8,5.6-14.4l2.4,13.6c0,0,8,36,9.6,44h-33.6V119.4z"/>
<path class="st1" d="M123.9,124.2l-4-20.8c-7.2-24-30.4-50.4-56-63.2l36,128h43.2l64.8-144h-43.2L123.9,124.2z"/>
<path class="st2" d="M123.9,124.2l-4-20.8c-7.2-24-30.4-50.4-56-63.2l36,128h43.2l64.8-144h-35.2L123.9,124.2z"/>
<path class="st3" d="M12.7,23.4l7.2,1.6c51.2,12,86.4,42.4,100,78.4l-14.4-68c-2.4-9.6-9.6-12-18.4-12H12.7z"/>
<path class="st4" d="M12.7,23.4L12.7,23.4c51.2,12,93.6,43.2,107.2,79.2l-13.6-56.8c-2.4-9.6-10.4-15.2-19.2-15.2L12.7,23.4z"/>
<path class="st5" d="M12.7,23.4L12.7,23.4c51.2,12,93.6,43.2,107.2,79.2l-9.6-31.2c-2.4-9.6-5.6-19.2-16.8-23.2L12.7,23.4z"/>
<g>
	<path class="st6" d="M163.9,119.4l-27.2-27.2l-12.8,30.4l-3.2-20c-7.2-24-30.4-50.4-56-63.2l36,128h43.2L163.9,119.4z"/>
	<polygon class="st6" points="238.3,167.4 203.9,132.2 197.5,167.4 	"/>
	<path class="st6" d="M330.3,117.8L330.3,117.8c3.2,3.2,4.8,5.6,4,8.8c0,9.6-12.8,14.4-24,14.4c-16,0-24.8-2.4-38.4-8l-5.6-2.4
		l-5.6,32.8c9.6,4,27.2,8,45.6,8c25.6,0,46.4-7.2,58.4-20L330.3,117.8z"/>
	<path class="st6" d="M376.7,167.4h37.6l8-24h51.2l4.8,24h38.4L503.1,109l-48-46.4l2.4,12.8c0,0,8,36,9.6,44h-33.6
		c3.2-8,16-42.4,16-42.4s3.2-8.8,5.6-14.4"/>
</g>
</svg>
